…
***

# Accessing Columns and Rows
To access the columns, we could use `$` or `[]`; however, the output is slightly different. The example below will explain better:
```r
data["Year"] #Using the name of the column
```
Output:
```r
## # A tibble: 15,901 x 1
##     Year
##    <dbl>
##  1  1900
##  2  1900
##  3  1902
##  4  1902
##  5  1902
##  6  1903
##  7  1903
##  8  1904
##  9  1905
## 10  1905
## # … with 15,891 more rows
```
***
```r
data[,"Year"] #Using "," to note that the first part is for rows and the second part is for columns. 
```
Output:
```r
## # A tibble: 15,901 x 1
##     Year
##    <dbl>
##  1  1900
##  2  1900
##  3  1902
##  4  1902
##  5  1902
##  6  1903
##  7  1903
##  8  1904
##  9  1905
## 10  1905
## # … with 15,891 more rows
```
***
```r
data[1] #Using the index of the column
```
Output:
```r
## # A tibble: 15,901 x 1
##    ID_No        
##    <chr>        
##  1 1900-9002-CPV
##  2 1900-9001-IND
##  3 1902-0012-GTM
##  4 1902-0003-GTM
##  5 1902-0010-GTM
##  6 1903-0006-CAN
##  7 1903-0012-COM
##  8 1904-0003-BGD
##  9 1905-0005-CAN
## 10 1905-0003-IND
## # … with 15,891 more rows
```
…
Oops, looks like it didn't work! Yes, because we are using the boolean array to access columns and not rows. (Remember, the `,`!!!)
```r
data[data$Continent == "Africa", ]
```
Output:
```r
## # A tibble: 2,908 x 43
##    ID_No          Year   Seq Disaster_Group Disaster_Subgroup Disaster_Type    
##    <chr>         <dbl> <dbl> <chr>          <chr>             <chr>            
##  1 1900-9002-CPV  1900  9002 Natural        Climatological    Drought          
##  2 1903-0012-COM  1903    12 Natural        Geophysical       Volcanic activity
##  3 1910-9006-BFA  1910  9006 Natural        Climatological    Drought          
##  4 1910-9006-CPV  1910  9006 Natural        Climatological    Drought          
##  5 1910-0005-DZA  1910     5 Natural        Geophysical       Earthquake       
##  6 1910-9006-GMB  1910  9006 Natural        Climatological    Drought          
##  7 1910-9006-GNB  1910  9006 Natural        Climatological    Drought          
##  8 1920-9004-CPV  1920  9004 Natural        Climatological    Drought          
##  9 1926-0014-EGY  1926    14 Natural        Geophysical       Earthquake       
## 10 1927-0012-DZA  1927    12 Natural        Hydrological      Flood            
## # … with 2,898 more rows, and 37 more variables: Disaster_Subtype <chr>,
## #   Disaster_Subsubtype <chr>, Event_Name <chr>, Entry_Criteria <chr>,
## #   Country <chr>, ISO <chr>, Region <chr>, Continent <chr>, Location <chr>,
## #   Origin <chr>, Associated_Dis <chr>, Associated_Dis2 <chr>,
## #   OFDA_Response <chr>, Appeal <chr>, Declaration <chr>,
## #   Aid_Contribution <lgl>, Dis_Mag_Value <dbl>, Dis_Mag_Scale <chr>,
## #   Latitude <chr>, Longitude <chr>, Local_Time <chr>, River_Basin <chr>,
## #   Start_Year <dbl>, Start_Month <dbl>, Start_Day <dbl>, End_Year <dbl>,
## #   End_Month <dbl>, End_Day <dbl>, Total_Deaths <dbl>, No_Injured <dbl>,
…
  filter(Continent == "Africa") %>%
  select(c("Continent", "Year", "Disaster_Type", "Total_Damages", "Total_Deaths", "Total_Affected")) %>%
  group_by(Disaster_Type) %>%
  mutate(Total_Damages = ifelse(is.na(Total_Damages), median(Total_Damages, na.rm = TRUE), Total_Damages),
         Total_Deaths = ifelse(is.na(Total_Deaths), median(Total_Deaths, na.rm = TRUE), Total_Deaths),
         Total_Affected = ifelse(is.na(Total_Affected), median(Total_Affected, na.rm = TRUE), Total_Affected),
         Total_Casualty = Total_Affected + Total_Deaths) %>%
  ungroup()
```
```r
Africa
```
Output:
```r
## # A tibble: 1,843 x 7
##    Continent  Year Disaster_Type Total_Damages Total_Deaths Total_Affected
##    <chr>     <dbl> <chr>                 <dbl>        <dbl>          <dbl>
##  1 Africa     1900 Drought               34000        11000         838000
##  2 Africa     1910 Drought               34000          237         838000
##  3 Africa     1910 Drought               34000          237         838000
##  4 Africa     1910 Earthquake            28000           12           2000
##  5 Africa     1910 Drought               34000          237         838000
##  6 Africa     1910 Drought               34000          237         838000
##  7 Africa     1920 Drought               34000        24000         838000
##  8 Africa     1926 Earthquake            28000           12           2000
##  9 Africa     1927 Flood                 10000         3000          12000
## 10 Africa     1939 Earthquake            28000           22           7630
## # … with 1,833 more rows, and 1 more variable: Total_Casualty <dbl>
```
…
